[ 
   { 
      "id":232570,
      "data_realizacao":"2019-05-25T16:00",
      "hora_realizacao":"16:00",
      "placar_oficial_visitante":1,
      "placar_oficial_mandante":0,
      "placar_penaltis_visitante":null,
      "placar_penaltis_mandante":null,
      "equipes":{ 
         "mandante":{ 
            "id":263,
            "nome_popular":"Botafogo",
            "sigla":"BOT",
            "escudo":"https://s.glbimg.com/es/sde/f/organizacoes/2019/02/04/botafogo-svg.svg"
         },
         "visitante":{ 
            "id":275,
            "nome_popular":"Palmeiras",
            "sigla":"PAL",
            "escudo":"https://s.glbimg.com/es/sde/f/equipes/2019/07/07/palmeiras.svg"
         }
      },
      "sede":{ 
         "nome_popular":"Man\u00e9 Garrincha"
      },
      "transmissao":{ 
         "label":"veja como foi",
         "url":"https://globoesporte.globo.com/rj/futebol/brasileirao-serie-a/jogo/25-05-2019/botafogo-palmeiras.ghtml"
      }
   },
   { 
      "id":232564,
      "data_realizacao":"2019-05-25T19:00",
      "hora_realizacao":"19:00",
      "placar_oficial_visitante":0,
      "placar_oficial_mandante":1,
      "placar_penaltis_visitante":null,
      "placar_penaltis_mandante":null,
      "equipes":{ 
         "mandante":{ 
            "id":284,
            "nome_popular":"Gr\u00eamio",
            "sigla":"GRE",
            "escudo":"https://s.glbimg.com/es/sde/f/organizacoes/2018/03/12/gremio.svg"
         },
         "visitante":{ 
            "id":282,
            "nome_popular":"Atl\u00e9tico-MG",
            "sigla":"CAM",
            "escudo":"https://s.glbimg.com/es/sde/f/organizacoes/2018/03/10/atletico-mg.svg"
         }
      },
      "sede":{ 
         "nome_popular":"Arena do Gr\u00eamio"
      },
      "transmissao":{ 
         "label":"veja como foi",
         "url":"https://globoesporte.globo.com/rs/futebol/brasileirao-serie-a/jogo/25-05-2019/gremio-atletico-mg.ghtml"
      }
   },
   { 
      "id":232568,
      "data_realizacao":"2019-05-26T16:00",
      "hora_realizacao":"16:00",
      "placar_oficial_visitante":0,
      "placar_oficial_mandante":0,
      "placar_penaltis_visitante":null,
      "placar_penaltis_mandante":null,
      "equipes":{ 
         "mandante":{ 
            "id":277,
            "nome_popular":"Santos",
            "sigla":"SAN",
            "escudo":"https://s.glbimg.com/es/sde/f/organizacoes/2018/03/12/santos.svg"
         },
         "visitante":{ 
            "id":285,
            "nome_popular":"Internacional",
            "sigla":"INT",
            "escudo":"https://s.glbimg.com/es/sde/f/organizacoes/2018/03/11/internacional.svg"
         }
      },
      "sede":{ 
         "nome_popular":"Vila Belmiro"
      },
      "transmissao":{ 
         "label":"veja como foi",
         "url":"https://globoesporte.globo.com/sp/santos-e-regiao/futebol/brasileirao-serie-a/jogo/26-05-2019/santos-internacional.ghtml"
      }
   },
   { 
      "id":232569,
      "data_realizacao":"2019-05-26T16:00",
      "hora_realizacao":"16:00",
      "placar_oficial_visitante":2,
      "placar_oficial_mandante":3,
      "placar_penaltis_visitante":null,
      "placar_penaltis_mandante":null,
      "equipes":{ 
         "mandante":{ 
            "id":262,
            "nome_popular":"Flamengo",
            "sigla":"FLA",
            "escudo":"https://s.glbimg.com/es/sde/f/organizacoes/2018/04/10/Flamengo-2018.svg"
         },
         "visitante":{ 
            "id":293,
            "nome_popular":"Athletico-PR",
            "sigla":"CAP",
            "escudo":"https://s.glbimg.com/es/sde/f/organizacoes/2019/09/09/Athletico-PR.svg"
         }
      },
      "sede":{ 
         "nome_popular":"Maracan\u00e3"
      },
      "transmissao":{ 
         "label":"veja como foi",
         "url":"https://globoesporte.globo.com/rj/futebol/brasileirao-serie-a/jogo/26-05-2019/flamengo-atletico-pr.ghtml"
      }
   },
   { 
      "id":232565,
      "data_realizacao":"2019-05-26T19:00",
      "hora_realizacao":"19:00",
      "placar_oficial_visitante":2,
      "placar_oficial_mandante":1,
      "placar_penaltis_visitante":null,
      "placar_penaltis_mandante":null,
      "equipes":{ 
         "mandante":{ 
            "id":283,
            "nome_popular":"Cruzeiro",
            "sigla":"CRU",
            "escudo":"https://s.glbimg.com/es/sde/f/organizacoes/2018/03/11/cruzeiro.svg"
         },
         "visitante":{ 
            "id":315,
            "nome_popular":"Chapecoense",
            "sigla":"CHA",
            "escudo":"https://s.glbimg.com/es/sde/f/organizacoes/2018/03/11/chapecoense.svg"
         }
      },
      "sede":{ 
         "nome_popular":"Independ\u00eancia"
      },
      "transmissao":{ 
         "label":"veja como foi",
         "url":"https://globoesporte.globo.com/mg/futebol/brasileirao-serie-a/jogo/26-05-2019/cruzeiro-chapecoense.ghtml"
      }
   },
   { 
      "id":232566,
      "data_realizacao":"2019-05-26T19:00",
      "hora_realizacao":"19:00",
      "placar_oficial_visitante":1,
      "placar_oficial_mandante":1,
      "placar_penaltis_visitante":null,
      "placar_penaltis_mandante":null,
      "equipes":{ 
         "mandante":{ 
            "id":356,
            "nome_popular":"Fortaleza",
            "sigla":"FOR",
            "escudo":"https://s.glbimg.com/es/sde/f/organizacoes/2018/06/10/optimised.svg"
         },
         "visitante":{ 
            "id":267,
            "nome_popular":"Vasco",
            "sigla":"VAS",
            "escudo":"https://s.glbimg.com/es/sde/f/organizacoes/2018/03/11/vasco.svg"
         }
      },
      "sede":{ 
         "nome_popular":"Castel\u00e3o (CE)"
      },
      "transmissao":{ 
         "label":"veja como foi",
         "url":"https://globoesporte.globo.com/ce/futebol/brasileirao-serie-a/jogo/26-05-2019/fortaleza-vasco.ghtml"
      }
   },
   { 
      "id":232567,
      "data_realizacao":"2019-05-26T19:00",
      "hora_realizacao":"19:00",
      "placar_oficial_visitante":0,
      "placar_oficial_mandante":1,
      "placar_penaltis_visitante":null,
      "placar_penaltis_mandante":null,
      "equipes":{ 
         "mandante":{ 
            "id":264,
            "nome_popular":"Corinthians",
            "sigla":"COR",
            "escudo":"https://s.glbimg.com/es/sde/f/organizacoes/2019/09/30/Corinthians.svg"
         },
         "visitante":{ 
            "id":276,
            "nome_popular":"S\u00e3o Paulo",
            "sigla":"SAO",
            "escudo":"https://s.glbimg.com/es/sde/f/organizacoes/2018/03/11/sao-paulo.svg"
         }
      },
      "sede":{ 
         "nome_popular":"Arena Corinthians"
      },
      "transmissao":{ 
         "label":"veja como foi",
         "url":"https://globoesporte.globo.com/sp/futebol/brasileirao-serie-a/jogo/26-05-2019/corinthians-sao-paulo.ghtml"
      }
   },
   { 
      "id":232572,
      "data_realizacao":"2019-05-26T19:00",
      "hora_realizacao":"19:00",
      "placar_oficial_visitante":2,
      "placar_oficial_mandante":3,
      "placar_penaltis_visitante":null,
      "placar_penaltis_mandante":null,
      "equipes":{ 
         "mandante":{ 
            "id":265,
            "nome_popular":"Bahia",
            "sigla":"BAH",
            "escudo":"https://s.glbimg.com/es/sde/f/organizacoes/2018/03/11/bahia.svg"
         },
         "visitante":{ 
            "id":266,
            "nome_popular":"Fluminense",
            "sigla":"FLU",
            "escudo":"https://s.glbimg.com/es/sde/f/organizacoes/2018/03/11/fluminense.svg"
         }
      },
      "sede":{ 
         "nome_popular":"Fonte Nova"
      },
      "transmissao":{ 
         "label":"veja como foi",
         "url":"https://globoesporte.globo.com/ba/futebol/brasileirao-serie-a/jogo/26-05-2019/bahia-fluminense.ghtml"
      }
   },
   { 
      "id":232571,
      "data_realizacao":"2019-05-27T20:00",
      "hora_realizacao":"20:00",
      "placar_oficial_visitante":2,
      "placar_oficial_mandante":1,
      "placar_penaltis_visitante":null,
      "placar_penaltis_mandante":null,
      "equipes":{ 
         "mandante":{ 
            "id":314,
            "nome_popular":"Ava\u00ed",
            "sigla":"AVA",
            "escudo":"https://s.glbimg.com/es/sde/f/organizacoes/2018/09/04/avai-futebol-clube.svg"
         },
         "visitante":{ 
            "id":354,
            "nome_popular":"Cear\u00e1",
            "sigla":"CEA",
            "escudo":"https://s.glbimg.com/es/sde/f/organizacoes/2019/10/10/ceara.svg"
         }
      },
      "sede":{ 
         "nome_popular":"Ressacada"
      },
      "transmissao":{ 
         "label":"veja como foi",
         "url":"https://globoesporte.globo.com/sc/futebol/brasileirao-serie-a/jogo/27-05-2019/avai-ceara.ghtml"
      }
   },
   { 
      "id":232573,
      "data_realizacao":"2019-05-27T20:00",
      "hora_realizacao":"20:00",
      "placar_oficial_visitante":0,
      "placar_oficial_mandante":1,
      "placar_penaltis_visitante":null,
      "placar_penaltis_mandante":null,
      "equipes":{ 
         "mandante":{ 
            "id":341,
            "nome_popular":"CSA",
            "sigla":"CSA",
            "escudo":"https://s.glbimg.com/es/sde/f/organizacoes/2018/03/11/csa.svg"
         },
         "visitante":{ 
            "id":290,
            "nome_popular":"Goi\u00e1s",
            "sigla":"GOI",
            "escudo":"https://s.glbimg.com/es/sde/f/organizacoes/2019/05/01/Goias_SVG.svg"
         }
      },
      "sede":{ 
         "nome_popular":"Rei Pel\u00e9"
      },
      "transmissao":{ 
         "label":"veja como foi",
         "url":"https://globoesporte.globo.com/al/futebol/brasileirao-serie-a/jogo/27-05-2019/csa-goias.ghtml"
      }
   }
]