[ 
   { 
      "id":232660,
      "data_realizacao":"2019-06-12T19:15",
      "hora_realizacao":"19:15",
      "placar_oficial_visitante":1,
      "placar_oficial_mandante":0,
      "placar_penaltis_visitante":null,
      "placar_penaltis_mandante":null,
      "equipes":{ 
         "mandante":{ 
            "id":263,
            "nome_popular":"Botafogo",
            "sigla":"BOT",
            "escudo":"https://s.glbimg.com/es/sde/f/organizacoes/2019/02/04/botafogo-svg.svg"
         },
         "visitante":{ 
            "id":284,
            "nome_popular":"Gr\u00eamio",
            "sigla":"GRE",
            "escudo":"https://s.glbimg.com/es/sde/f/organizacoes/2018/03/12/gremio.svg"
         }
      },
      "sede":{ 
         "nome_popular":"Engenh\u00e3o"
      },
      "transmissao":{ 
         "label":"veja como foi",
         "url":"https://globoesporte.globo.com/rj/futebol/brasileirao-serie-a/jogo/12-06-2019/botafogo-gremio.ghtml"
      }
   },
   { 
      "id":232656,
      "data_realizacao":"2019-06-12T21:00",
      "hora_realizacao":"21:00",
      "placar_oficial_visitante":1,
      "placar_oficial_mandante":2,
      "placar_penaltis_visitante":null,
      "placar_penaltis_mandante":null,
      "equipes":{ 
         "mandante":{ 
            "id":356,
            "nome_popular":"Fortaleza",
            "sigla":"FOR",
            "escudo":"https://s.glbimg.com/es/sde/f/organizacoes/2018/06/10/optimised.svg"
         },
         "visitante":{ 
            "id":283,
            "nome_popular":"Cruzeiro",
            "sigla":"CRU",
            "escudo":"https://s.glbimg.com/es/sde/f/organizacoes/2018/03/11/cruzeiro.svg"
         }
      },
      "sede":{ 
         "nome_popular":"Castel\u00e3o (CE)"
      },
      "transmissao":{ 
         "label":"veja como foi",
         "url":"https://globoesporte.globo.com/ce/futebol/brasileirao-serie-a/jogo/12-06-2019/fortaleza-cruzeiro.ghtml"
      }
   },
   { 
      "id":232654,
      "data_realizacao":"2019-06-12T21:30",
      "hora_realizacao":"21:30",
      "placar_oficial_visitante":1,
      "placar_oficial_mandante":3,
      "placar_penaltis_visitante":null,
      "placar_penaltis_mandante":null,
      "equipes":{ 
         "mandante":{ 
            "id":285,
            "nome_popular":"Internacional",
            "sigla":"INT",
            "escudo":"https://s.glbimg.com/es/sde/f/organizacoes/2018/03/11/internacional.svg"
         },
         "visitante":{ 
            "id":265,
            "nome_popular":"Bahia",
            "sigla":"BAH",
            "escudo":"https://s.glbimg.com/es/sde/f/organizacoes/2018/03/11/bahia.svg"
         }
      },
      "sede":{ 
         "nome_popular":"Beira-Rio"
      },
      "transmissao":{ 
         "label":"veja como foi",
         "url":"https://globoesporte.globo.com/rs/futebol/brasileirao-serie-a/jogo/12-06-2019/internacional-bahia.ghtml"
      }
   },
   { 
      "id":232658,
      "data_realizacao":"2019-06-12T21:30",
      "hora_realizacao":"21:30",
      "placar_oficial_visitante":0,
      "placar_oficial_mandante":1,
      "placar_penaltis_visitante":null,
      "placar_penaltis_mandante":null,
      "equipes":{ 
         "mandante":{ 
            "id":277,
            "nome_popular":"Santos",
            "sigla":"SAN",
            "escudo":"https://s.glbimg.com/es/sde/f/organizacoes/2018/03/12/santos.svg"
         },
         "visitante":{ 
            "id":264,
            "nome_popular":"Corinthians",
            "sigla":"COR",
            "escudo":"https://s.glbimg.com/es/sde/f/organizacoes/2019/09/30/Corinthians.svg"
         }
      },
      "sede":{ 
         "nome_popular":"Vila Belmiro"
      },
      "transmissao":{ 
         "label":"veja como foi",
         "url":"https://globoesporte.globo.com/sp/santos-e-regiao/futebol/brasileirao-serie-a/jogo/12-06-2019/santos-corinthians.ghtml"
      }
   },
   { 
      "id":232663,
      "data_realizacao":"2019-06-12T21:30",
      "hora_realizacao":"21:30",
      "placar_oficial_visitante":2,
      "placar_oficial_mandante":0,
      "placar_penaltis_visitante":null,
      "placar_penaltis_mandante":null,
      "equipes":{ 
         "mandante":{ 
            "id":341,
            "nome_popular":"CSA",
            "sigla":"CSA",
            "escudo":"https://s.glbimg.com/es/sde/f/organizacoes/2018/03/11/csa.svg"
         },
         "visitante":{ 
            "id":262,
            "nome_popular":"Flamengo",
            "sigla":"FLA",
            "escudo":"https://s.glbimg.com/es/sde/f/organizacoes/2018/04/10/Flamengo-2018.svg"
         }
      },
      "sede":{ 
         "nome_popular":"Man\u00e9 Garrincha"
      },
      "transmissao":{ 
         "label":"veja como foi",
         "url":"https://globoesporte.globo.com/al/futebol/brasileirao-serie-a/jogo/12-06-2019/csa-flamengo.ghtml"
      }
   },
   { 
      "id":232659,
      "data_realizacao":"2019-06-13T19:15",
      "hora_realizacao":"19:15",
      "placar_oficial_visitante":0,
      "placar_oficial_mandante":1,
      "placar_penaltis_visitante":null,
      "placar_penaltis_mandante":null,
      "equipes":{ 
         "mandante":{ 
            "id":267,
            "nome_popular":"Vasco",
            "sigla":"VAS",
            "escudo":"https://s.glbimg.com/es/sde/f/organizacoes/2018/03/11/vasco.svg"
         },
         "visitante":{ 
            "id":354,
            "nome_popular":"Cear\u00e1",
            "sigla":"CEA",
            "escudo":"https://s.glbimg.com/es/sde/f/organizacoes/2019/10/10/ceara.svg"
         }
      },
      "sede":{ 
         "nome_popular":"S\u00e3o Janu\u00e1rio"
      },
      "transmissao":{ 
         "label":"veja como foi",
         "url":"https://globoesporte.globo.com/ce/futebol/brasileirao-serie-a/jogo/13-06-2019/vasco-ceara.ghtml"
      }
   },
   { 
      "id":232655,
      "data_realizacao":"2019-06-13T20:00",
      "hora_realizacao":"20:00",
      "placar_oficial_visitante":1,
      "placar_oficial_mandante":1,
      "placar_penaltis_visitante":null,
      "placar_penaltis_mandante":null,
      "equipes":{ 
         "mandante":{ 
            "id":282,
            "nome_popular":"Atl\u00e9tico-MG",
            "sigla":"CAM",
            "escudo":"https://s.glbimg.com/es/sde/f/organizacoes/2018/03/10/atletico-mg.svg"
         },
         "visitante":{ 
            "id":276,
            "nome_popular":"S\u00e3o Paulo",
            "sigla":"SAO",
            "escudo":"https://s.glbimg.com/es/sde/f/organizacoes/2018/03/11/sao-paulo.svg"
         }
      },
      "sede":{ 
         "nome_popular":"Independ\u00eancia"
      },
      "transmissao":{ 
         "label":"veja como foi",
         "url":"https://globoesporte.globo.com/mg/futebol/brasileirao-serie-a/jogo/13-06-2019/atletico-mg-sao-paulo.ghtml"
      }
   },
   { 
      "id":232657,
      "data_realizacao":"2019-06-13T20:00",
      "hora_realizacao":"20:00",
      "placar_oficial_visitante":0,
      "placar_oficial_mandante":2,
      "placar_penaltis_visitante":null,
      "placar_penaltis_mandante":null,
      "equipes":{ 
         "mandante":{ 
            "id":275,
            "nome_popular":"Palmeiras",
            "sigla":"PAL",
            "escudo":"https://s.glbimg.com/es/sde/f/equipes/2019/07/07/palmeiras.svg"
         },
         "visitante":{ 
            "id":314,
            "nome_popular":"Ava\u00ed",
            "sigla":"AVA",
            "escudo":"https://s.glbimg.com/es/sde/f/organizacoes/2018/09/04/avai-futebol-clube.svg"
         }
      },
      "sede":{ 
         "nome_popular":"Arena Palmeiras"
      },
      "transmissao":{ 
         "label":"veja como foi",
         "url":"https://globoesporte.globo.com/sp/futebol/brasileirao-serie-a/jogo/13-06-2019/palmeiras-avai.ghtml"
      }
   },
   { 
      "id":232661,
      "data_realizacao":"2019-06-13T20:00",
      "hora_realizacao":"20:00",
      "placar_oficial_visitante":1,
      "placar_oficial_mandante":1,
      "placar_penaltis_visitante":null,
      "placar_penaltis_mandante":null,
      "equipes":{ 
         "mandante":{ 
            "id":315,
            "nome_popular":"Chapecoense",
            "sigla":"CHA",
            "escudo":"https://s.glbimg.com/es/sde/f/organizacoes/2018/03/11/chapecoense.svg"
         },
         "visitante":{ 
            "id":266,
            "nome_popular":"Fluminense",
            "sigla":"FLU",
            "escudo":"https://s.glbimg.com/es/sde/f/organizacoes/2018/03/11/fluminense.svg"
         }
      },
      "sede":{ 
         "nome_popular":"Arena Cond\u00e1"
      },
      "transmissao":{ 
         "label":"veja como foi",
         "url":"https://globoesporte.globo.com/sc/futebol/brasileirao-serie-a/jogo/13-06-2019/chapecoense-fluminense.ghtml"
      }
   },
   { 
      "id":232662,
      "data_realizacao":"2019-06-13T20:00",
      "hora_realizacao":"20:00",
      "placar_oficial_visitante":1,
      "placar_oficial_mandante":2,
      "placar_penaltis_visitante":null,
      "placar_penaltis_mandante":null,
      "equipes":{ 
         "mandante":{ 
            "id":290,
            "nome_popular":"Goi\u00e1s",
            "sigla":"GOI",
            "escudo":"https://s.glbimg.com/es/sde/f/organizacoes/2019/05/01/Goias_SVG.svg"
         },
         "visitante":{ 
            "id":293,
            "nome_popular":"Athletico-PR",
            "sigla":"CAP",
            "escudo":"https://s.glbimg.com/es/sde/f/organizacoes/2019/09/09/Athletico-PR.svg"
         }
      },
      "sede":{ 
         "nome_popular":"Serra Dourada"
      },
      "transmissao":{ 
         "label":"veja como foi",
         "url":"https://globoesporte.globo.com/go/futebol/brasileirao-serie-a/jogo/13-06-2019/goias-athletico-pr.ghtml"
      }
   }
]